Addison	12 0 0 0
Windham	7 0 0 0
Grand Isle	0 0 0 0
Bennington	11 0 0 0
Washington	7 0 0 0
Lamoille	5 0 0 0
Orleans	3 0 0 0
Essex	0 0 0 0
Chittenden	75 4 0 0
Unassigned	8 4 0 0
Franklin	4 0 0 0
Orange	3 0 0 0
Rutland	5 0 0 0
Caledonia	1 0 0 0
Windsor	17 1 0 0
