Brazil	2985 77 6 2902
Suriname	8 0 0 8
The Bahamas	9 0 1 8
Panama	558 8 2 548
Costa Rica	231 2 2 227
Peru	580 9 14 557
Argentina	502 9 63 430
Bolivia	43 0 0 43
Venezuela	107 0 15 92
Ecuador	1403 34 3 1366
Cuba	67 2 1 64
El Salvador	13 0 0 13
Saint Kitts and Nevis	2 0 0 2
Guatemala	25 1 4 20
Chile	1306 4 22 1280
Saint Vincent and the Grenadines	1 0 0 1
Haiti	8 0 0 8
Belize	2 0 0 2
Saint Lucia	3 0 0 3
Dominica	11 0 0 11
Trinidad and Tobago	65 1 0 64
Guyana	5 1 0 4
Grenada	7 0 0 7
Dominican Republic	488 10 3 475
Jamaica	26 1 2 23
Honduras	52 1 0 51
Mexico	475 6 4 465
Uruguay	217 0 0 217
Antigua and Barbuda	7 0 0 7
Colombia	491 6 8 477
Paraguay	41 3 0 38
Nicaragua	2 0 0 2
Barbados	18 0 0 18
