GID_0,NAME_0,GID_1,NAME_1,NL_NAME_1,GID_2,NAME_2,VARNAME_2,NL_NAME_2,TYPE_2,ENGTYPE_2,CC_2,HASC_2
CHN,China,CHN.1_1,Anhui,安徽|安徽,CHN.1.1_1,Anqing,Ānqìng,安庆市,Dìjíshì,Prefecture City,NA,NA
CHN,China,CHN.1_1,Anhui,安徽|安徽,CHN.1.2_1,Bengbu,Bèngbù,蚌埠市,Dìjíshì,Prefecture City,NA,NA
CHN,China,CHN.1_1,Anhui,安徽|安徽,CHN.1.3_1,Bozhou,Bózhōu,亳州市,Dìjíshì,Prefecture City,NA,NA
CHN,China,CHN.1_1,Anhui,安徽|安徽,CHN.1.4_1,Chaohu,Cháohú,巢湖市,Dìjíshì,Prefecture City,NA,NA
CHN,China,CHN.1_1,Anhui,安徽|安徽,CHN.1.5_1,Chizhou,Chízhōu,池州市,Dìjíshì,Prefecture City,NA,NA
CHN,China,CHN.1_1,Anhui,安徽|安徽,CHN.1.6_1,Chuzhou,Chúzhōu,滁州市,Dìjíshì,Prefecture City,NA,NA
CHN,China,CHN.1_1,Anhui,安徽|安徽,CHN.1.7_1,Fuyang,Fùyáng,阜阳市,Dìjíshì,Prefecture City,NA,NA
CHN,China,CHN.1_1,Anhui,安徽|安徽,CHN.1.8_1,Hefei,Héféi,合肥市,Dìjíshì,Prefecture City,NA,NA
CHN,China,CHN.1_1,Anhui,安徽|安徽,CHN.1.9_1,Huaibei,Huáiběi,淮北市,Dìjíshì,Prefecture City,NA,NA
CHN,China,CHN.1_1,Anhui,安徽|安徽,CHN.1.10_1,Huainan,Huáinán,淮南市,Dìjíshì,Prefecture City,NA,NA
CHN,China,CHN.1_1,Anhui,安徽|安徽,CHN.1.11_1,Huangshan,Huángshān,黄山市,Dìjíshì,Prefecture City,NA,NA
CHN,China,CHN.1_1,Anhui,安徽|安徽,CHN.1.12_1,Lu'an,Lù'ān,六安市,Dìjíshì,Prefecture City,NA,NA
CHN,China,CHN.1_1,Anhui,安徽|安徽,CHN.1.13_1,Ma'anshan,Mǎ'ānshān,马鞍山市,Dìjíshì,Prefecture City,NA,NA
CHN,China,CHN.1_1,Anhui,安徽|安徽,CHN.1.14_1,Suzhou,Sùzhōu,宿州市,Dìjíshì,Prefecture City,NA,NA
CHN,China,CHN.1_1,Anhui,安徽|安徽,CHN.1.15_1,Tongling,Tónglíng,铜陵市,Dìjíshì,Prefecture City,NA,NA
CHN,China,CHN.1_1,Anhui,安徽|安徽,CHN.1.16_1,Wuhu,Wúhú,芜湖市,Dìjíshì,Prefecture City,NA,NA
CHN,China,CHN.1_1,Anhui,安徽|安徽,CHN.1.17_1,Xuancheng,Xuānchéng,宣城市,Dìjíshì,Prefecture City,NA,NA
CHN,China,CHN.2_1,Beijing,北京|北京,CHN.2.1_1,Beijing,Běijīng,北京|北京,Zhíxiáshì,Municipality,NA,NA
CHN,China,CHN.3_1,Chongqing,重慶|重庆,CHN.3.1_1,Chongqing,Chóngqìng,重慶|重庆,Zhíxiáshì,Municipality,NA,NA
CHN,China,CHN.4_1,Fujian,福建,CHN.4.1_1,Fuzhou,Fúzhōu,福州市,Dìjíshì,Prefecture City,NA,NA
CHN,China,CHN.4_1,Fujian,福建,CHN.4.2_1,Longyan,Lóngyán,龙岩市,Dìjíshì,Prefecture City,NA,NA
CHN,China,CHN.4_1,Fujian,福建,CHN.4.3_1,Nanping,Nánpíng,南平市,Dìjíshì,Prefecture City,NA,NA
CHN,China,CHN.4_1,Fujian,福建,CHN.4.4_1,Ningde,Níngdé,宁德市,Dìjíshì,Prefecture City,NA,NA
CHN,China,CHN.4_1,Fujian,福建,CHN.4.5_1,Putian,Pútián,莆田市,Dìjíshì,Prefecture City,NA,NA
CHN,China,CHN.4_1,Fujian,福建,CHN.4.6_1,Quanzhou,Quánzhōu,泉州市,Dìjíshì,Prefecture City,NA,NA
CHN,China,CHN.4_1,Fujian,福建,CHN.4.7_1,Sanming,Sānmíng,三明市,Dìjíshì,Prefecture City,NA,NA
CHN,China,CHN.4_1,Fujian,福建,CHN.4.8_1,Xiamen,Xiàmén,厦门市,Dìjíshì,Prefecture City,NA,NA
CHN,China,CHN.4_1,Fujian,福建,CHN.4.9_1,Zhangzhou,Zhāngzhōu,漳州市,Dìjíshì,Prefecture City,NA,NA
CHN,China,CHN.5_1,Gansu,甘肅|甘肃,CHN.5.1_1,Baiyin,Báiyín,白银市,Dìjíshì,Prefecture City,NA,NA
CHN,China,CHN.5_1,Gansu,甘肅|甘肃,CHN.5.2_1,Dingxi,Dìngxī,定西市,Dìjíshì,Prefecture City,NA,NA
CHN,China,CHN.5_1,Gansu,甘肅|甘肃,CHN.5.3_1,Gannan Tibetan,Gānnán Zàngzú,甘南藏族自治州,Zìzhìzhou,Autonomous Prefecture,NA,NA
CHN,China,CHN.5_1,Gansu,甘肅|甘肃,CHN.5.4_1,Jiayuguan,Jiāyùguān,嘉峪关市,Dìjíshì,Prefecture City,NA,NA
CHN,China,CHN.5_1,Gansu,甘肅|甘肃,CHN.5.5_1,Jinchang,Jīnchāng,金昌市,Dìjíshì,Prefecture City,NA,NA
CHN,China,CHN.5_1,Gansu,甘肅|甘肃,CHN.5.6_1,Jiuquan,Jiǔquán,酒泉市,Dìjíshì,Prefecture City,NA,NA
CHN,China,CHN.5_1,Gansu,甘肅|甘肃,CHN.5.7_1,Lanzhou,Lánzhōu,兰州市,Dìjíshì,Prefecture City,NA,NA
CHN,China,CHN.5_1,Gansu,甘肅|甘肃,CHN.5.8_1,Linxia Hui,Línxià Huizù,临夏回族自治州,Zìzhìzhou,Autonomous Prefecture,NA,NA
CHN,China,CHN.5_1,Gansu,甘肅|甘肃,CHN.5.9_1,Longnan,Lǒngnán,陇南市,Dìjíshì,Prefecture City,NA,NA
CHN,China,CHN.5_1,Gansu,甘肅|甘肃,CHN.5.10_1,Pingliang,Píngliáng,平凉市,Dìjíshì,Prefecture City,NA,NA
CHN,China,CHN.5_1,Gansu,甘肅|甘肃,CHN.5.11_1,Qingyang,Qìngyáng,庆阳市,Dìjíshì,Prefecture City,NA,NA
CHN,China,CHN.5_1,Gansu,甘肅|甘肃,CHN.5.12_1,Tianshui,Tiānshuǐ,天水市,Dìjíshì,Prefecture City,NA,NA
CHN,China,CHN.5_1,Gansu,甘肅|甘肃,CHN.5.13_1,Wuwei,Wǔwēi,武威市,Dìjíshì,Prefecture City,NA,NA
CHN,China,CHN.5_1,Gansu,甘肅|甘肃,CHN.5.14_1,Zhangye,Zhāngyè,张掖市,Dìjíshì,Prefecture City,NA,NA
CHN,China,CHN.6_1,Guangdong,廣東|广东,CHN.6.1_1,Chaozhou,Cháozhōu,潮州市,Dìjíshì,Prefecture City,NA,NA
CHN,China,CHN.6_1,Guangdong,廣東|广东,CHN.6.2_1,Dongguan,Dōngguǎn,东莞市,Dìjíshì,Prefecture City,NA,NA
CHN,China,CHN.6_1,Guangdong,廣東|广东,CHN.6.3_1,Foshan,Fóshān,佛山市,Dìjíshì,Prefecture City,NA,NA
CHN,China,CHN.6_1,Guangdong,廣東|广东,CHN.6.4_1,Guangzhou,Guǎngzhōu,广州市,Dìjíshì,Prefecture City,NA,NA
CHN,China,CHN.6_1,Guangdong,廣東|广东,CHN.6.5_1,Heyuan,Héyuán,河源市,Dìjíshì,Prefecture City,NA,NA
CHN,China,CHN.6_1,Guangdong,廣東|广东,CHN.6.6_1,Huizhou,Huìzhōu,惠州市,Dìjíshì,Prefecture City,NA,NA
CHN,China,CHN.6_1,Guangdong,廣東|广东,CHN.6.7_1,Jiangmen,Jiāngmén,江门市,Dìjíshì,Prefecture City,NA,NA
CHN,China,CHN.6_1,Guangdong,廣東|广东,CHN.6.8_1,Jieyang,Jiēyáng,揭阳市,Dìjíshì,Prefecture City,NA,NA
CHN,China,CHN.6_1,Guangdong,廣東|广东,CHN.6.9_1,Maoming,Màomíng,茂名市,Dìjíshì,Prefecture City,NA,NA
CHN,China,CHN.6_1,Guangdong,廣東|广东,CHN.6.10_1,Meizhou,Méizhōu,梅州市,Dìjíshì,Prefecture City,NA,NA
CHN,China,CHN.6_1,Guangdong,廣東|广东,CHN.6.11_1,Qingyuan,Qīngyuǎn,清远市,Dìjíshì,Prefecture City,NA,NA
CHN,China,CHN.6_1,Guangdong,廣東|广东,CHN.6.12_1,Shantou,Shàntóu,汕头市,Dìjíshì,Prefecture City,NA,NA
CHN,China,CHN.6_1,Guangdong,廣東|广东,CHN.6.13_1,Shanwei,Shànwěi,汕尾市,Dìjíshì,Prefecture City,NA,NA
CHN,China,CHN.6_1,Guangdong,廣東|广东,CHN.6.14_1,Shaoguan,Sháoguān,韶关市,Dìjíshì,Prefecture City,NA,NA
CHN,China,CHN.6_1,Guangdong,廣東|广东,CHN.6.15_1,Shenzhen,Shēnzhèn,深圳市,Dìjíshì,Prefecture City,NA,NA
CHN,China,CHN.6_1,Guangdong,廣東|广东,CHN.6.16_1,Yangjiang,Yángjiāng,阳江市,Dìjíshì,Prefecture City,NA,NA
CHN,China,CHN.6_1,Guangdong,廣東|广东,CHN.6.17_1,Yunfu,Yúnfú,云浮市,Dìjíshì,Prefecture City,NA,NA
CHN,China,CHN.6_1,Guangdong,廣東|广东,CHN.6.18_1,Zhanjiang,Zhànjiāng,湛江市,Dìjíshì,Prefecture City,NA,NA
CHN,China,CHN.6_1,Guangdong,廣東|广东,CHN.6.19_1,Zhaoqing,Zhàoqìng,肇庆市,Dìjíshì,Prefecture City,NA,NA
CHN,China,CHN.6_1,Guangdong,廣東|广东,CHN.6.20_1,Zhongshan,Zhōngshān,中山市,Dìjíshì,Prefecture City,NA,NA
CHN,China,CHN.6_1,Guangdong,廣東|广东,CHN.6.21_1,Zhuhai,Zhūhǎi,珠海市,Dìjíshì,Prefecture City,NA,NA
CHN,China,CHN.7_1,Guangxi,廣西壯族自治區|广西壮族自治区,CHN.7.1_1,Baise,Bǎisè,百色市,Dìjíshì,Prefecture City,NA,NA
CHN,China,CHN.7_1,Guangxi,廣西壯族自治區|广西壮族自治区,CHN.7.2_1,Beihai,Běihǎi,北海市,Dìjíshì,Prefecture City,NA,NA
CHN,China,CHN.7_1,Guangxi,廣西壯族自治區|广西壮族自治区,CHN.7.3_1,Chongzuo,Chóngzuǒ,崇左市,Dìjíshì,Prefecture City,NA,NA
CHN,China,CHN.7_1,Guangxi,廣西壯族自治區|广西壮族自治区,CHN.7.4_1,Fangchenggang,Fángchénggǎng,防城港市,Dìjíshì,Prefecture City,NA,NA
CHN,China,CHN.7_1,Guangxi,廣西壯族自治區|广西壮族自治区,CHN.7.5_1,Guigang,Guìgǎng,贵港市,Dìjíshì,Prefecture City,NA,NA
CHN,China,CHN.7_1,Guangxi,廣西壯族自治區|广西壮族自治区,CHN.7.6_1,Guilin,Guìlín,桂林市,Dìjíshì,Prefecture City,NA,NA
CHN,China,CHN.7_1,Guangxi,廣西壯族自治區|广西壮族自治区,CHN.7.7_1,Hechi,Héchí,河池市,Dìjíshì,Prefecture City,NA,NA
CHN,China,CHN.7_1,Guangxi,廣西壯族自治區|广西壮族自治区,CHN.7.8_1,Hezhou,Hèzhōu,贺州市,Dìjíshì,Prefecture City,NA,NA
CHN,China,CHN.7_1,Guangxi,廣西壯族自治區|广西壮族自治区,CHN.7.9_1,Laibin,Láibīn,来宾市,Dìjíshì,Prefecture City,NA,NA
CHN,China,CHN.7_1,Guangxi,廣西壯族自治區|广西壮族自治区,CHN.7.10_1,Liuzhou,Liǔzhōu,柳州市,Dìjíshì,Prefecture City,NA,NA
CHN,China,CHN.7_1,Guangxi,廣西壯族自治區|广西壮族自治区,CHN.7.11_1,Nanning,Nánníng,南宁市,Dìjíshì,Prefecture City,NA,NA
CHN,China,CHN.7_1,Guangxi,廣西壯族自治區|广西壮族自治区,CHN.7.12_1,Qinzhou,Qīnzhōu,钦州市,Dìjíshì,Prefecture City,NA,NA
CHN,China,CHN.7_1,Guangxi,廣西壯族自治區|广西壮族自治区,CHN.7.13_1,Wuzhou,Wúzhōu,梧州市,Dìjíshì,Prefecture City,NA,NA
CHN,China,CHN.7_1,Guangxi,廣西壯族自治區|广西壮族自治区,CHN.7.14_1,Yulin,Yùlín,玉林市,Dìjíshì,Prefecture City,NA,NA
CHN,China,CHN.8_1,Guizhou,貴州|贵州,CHN.8.1_1,Anshun,Ānshùn,安顺市,Dìjíshì,Prefecture City,NA,NA
CHN,China,CHN.8_1,Guizhou,貴州|贵州,CHN.8.2_1,Bijie,Bìjié,毕节地区,Dìqu,Prefecture,NA,NA
CHN,China,CHN.8_1,Guizhou,貴州|贵州,CHN.8.3_1,Guiyang,Guìyáng,贵阳市,Dìjíshì,Prefecture City,NA,NA
CHN,China,CHN.8_1,Guizhou,貴州|贵州,CHN.8.4_1,Liupanshui,Liùpánshuǐ,六盘水市,Dìjíshì,Prefecture City,NA,NA
CHN,China,CHN.8_1,Guizhou,貴州|贵州,CHN.8.5_1,Qiandongnan Miao and Dong,Qiándōngnán Miáozú|Dòngzú,黔东南苗族侗族自治州,Zìzhìzhou,Autonomous Prefecture,NA,NA
CHN,China,CHN.8_1,Guizhou,貴州|贵州,CHN.8.6_1,Qiannan Buyei and Miao,Qiánnán Bùyīzú|Miáozú,黔南布依族苗族自治州,Zìzhìzhou,Autonomous Prefecture,NA,NA
CHN,China,CHN.8_1,Guizhou,貴州|贵州,CHN.8.7_1,Qianxinan Buyei and Miao,Qiánxīnán Bùyīzú|Miáozú,黔西南布依族苗族自治州,Zìzhìzhou,Autonomous Prefecture,NA,NA
CHN,China,CHN.8_1,Guizhou,貴州|贵州,CHN.8.8_1,Tongren,Tóngrén,铜仁地区,Dìqu,Prefecture,NA,NA
CHN,China,CHN.8_1,Guizhou,貴州|贵州,CHN.8.9_1,Zunyi,Zūnyì,遵义市,Dìjíshì,Prefecture City,NA,NA
CHN,China,CHN.9_1,Hainan,海南,CHN.9.1_1,Haikou,Hǎikǒu,海口市,Dìjíshì,Prefecture City,NA,NA
CHN,China,CHN.9_1,Hainan,海南,CHN.9.2_1,Hainan,Hǎinán,海南,Dìqu,Prefecture,NA,NA
CHN,China,CHN.9_1,Hainan,海南,CHN.9.3_1,Sanya,Sānyà,三亚市,Dìjíshì,Prefecture City,NA,NA
CHN,China,CHN.10_1,Hebei,河北,CHN.10.1_1,Baoding,Bǎodìng,保定市,Dìjíshì,Prefecture City,NA,NA
CHN,China,CHN.10_1,Hebei,河北,CHN.10.2_1,Cangzhou,Cāngzhōu,沧州市,Dìjíshì,Prefecture City,NA,NA
CHN,China,CHN.10_1,Hebei,河北,CHN.10.3_1,Chengde,Chéngdé,承德市,Dìjíshì,Prefecture City,NA,NA
CHN,China,CHN.10_1,Hebei,河北,CHN.10.4_1,Handan,Hándān,邯郸市,Dìjíshì,Prefecture City,NA,NA
CHN,China,CHN.10_1,Hebei,河北,CHN.10.5_1,Hengshui,Héngshuǐ,衡水市,Dìjíshì,Prefecture City,NA,NA
CHN,China,CHN.10_1,Hebei,河北,CHN.10.6_1,Langfang,Lángfáng,廊坊市,Dìjíshì,Prefecture City,NA,NA
CHN,China,CHN.10_1,Hebei,河北,CHN.10.7_1,Qinhuangdao,Qínhuángdǎo,秦皇岛市,Dìjíshì,Prefecture City,NA,NA
CHN,China,CHN.10_1,Hebei,河北,CHN.10.8_1,Shijiazhuang,Shíjiāzhuāng,石家庄市,Dìjíshì,Prefecture City,NA,NA
CHN,China,CHN.10_1,Hebei,河北,CHN.10.9_1,Tangshan,Tángshān,唐山市,Dìjíshì,Prefecture City,NA,NA
CHN,China,CHN.10_1,Hebei,河北,CHN.10.10_1,Xingtai,Xíngtái,邢台市,Dìjíshì,Prefecture City,NA,NA
CHN,China,CHN.10_1,Hebei,河北,CHN.10.11_1,Zhangjiakou,Zhāngjiākǒu,张家口市,Dìjíshì,Prefecture City,NA,NA
CHN,China,CHN.11_1,Heilongjiang,黑龙江省|黑龍江省,CHN.11.1_1,Daqing,Dàqìng,大庆市,Dìjíshì,Prefecture City,NA,NA
CHN,China,CHN.11_1,Heilongjiang,黑龙江省|黑龍江省,CHN.11.2_1,Daxing'anling,Dàxīng'ānlǐng,大兴安岭地区,Dìqu,Prefecture,NA,NA
CHN,China,CHN.11_1,Heilongjiang,黑龙江省|黑龍江省,CHN.11.3_1,Harbin,Hā'ěrbīn,哈尔滨市,Dìjíshì,Prefecture City,NA,NA
CHN,China,CHN.11_1,Heilongjiang,黑龙江省|黑龍江省,CHN.11.4_1,Hegang,Hègǎng,鹤岗市,Dìjíshì,Prefecture City,NA,NA
CHN,China,CHN.11_1,Heilongjiang,黑龙江省|黑龍江省,CHN.11.5_1,Heihe,Hēihé,黑河市,Dìjíshì,Prefecture City,NA,NA
CHN,China,CHN.11_1,Heilongjiang,黑龙江省|黑龍江省,CHN.11.6_1,Jiamusi,Jiāmùsī,佳木斯市,Dìjíshì,Prefecture City,NA,NA
CHN,China,CHN.11_1,Heilongjiang,黑龙江省|黑龍江省,CHN.11.7_1,Jixi,Jīxī,鸡西市,Dìjíshì,Prefecture City,NA,NA
CHN,China,CHN.11_1,Heilongjiang,黑龙江省|黑龍江省,CHN.11.8_1,Mudanjiang,Mǔdānjiāng,牡丹江市,Dìjíshì,Prefecture City,NA,NA
CHN,China,CHN.11_1,Heilongjiang,黑龙江省|黑龍江省,CHN.11.9_1,Qiqihar,Qíqíhā'ěr,齐齐哈尔市,Dìjíshì,Prefecture City,NA,NA
CHN,China,CHN.11_1,Heilongjiang,黑龙江省|黑龍江省,CHN.11.10_1,Qitaihe,Qītáihé,七台河市,Dìjíshì,Prefecture City,NA,NA
CHN,China,CHN.11_1,Heilongjiang,黑龙江省|黑龍江省,CHN.11.11_1,Shuangyashan,Shuāngyāshān,双鸭山市,Dìjíshì,Prefecture City,NA,NA
CHN,China,CHN.11_1,Heilongjiang,黑龙江省|黑龍江省,CHN.11.12_1,Suihua,Suíhuà,绥化市,Dìjíshì,Prefecture City,NA,NA
CHN,China,CHN.11_1,Heilongjiang,黑龙江省|黑龍江省,CHN.11.13_1,Yichun,Yīchūn,伊春市,Dìjíshì,Prefecture City,NA,NA
CHN,China,CHN.12_1,Henan,河南,CHN.12.1_1,Anyang,Ānyáng,安阳市,Dìjíshì,Prefecture City,NA,NA
CHN,China,CHN.12_1,Henan,河南,CHN.12.2_1,Hebi,Hèbì,鹤壁市,Dìjíshì,Prefecture City,NA,NA
CHN,China,CHN.12_1,Henan,河南,CHN.12.3_1,Jiaozuo,Jiāozuò,焦作市,Dìjíshì,Prefecture City,NA,NA
CHN,China,CHN.12_1,Henan,河南,CHN.12.4_1,Jiyuan shi,Jǐyuán,济源市,Dìjíshì,Prefecture City,NA,NA
CHN,China,CHN.12_1,Henan,河南,CHN.12.5_1,Kaifeng,Kāifēng,开封市,Dìjíshì,Prefecture City,NA,NA
CHN,China,CHN.12_1,Henan,河南,CHN.12.6_1,Luohe,Luòhé,漯河市,Dìjíshì,Prefecture City,NA,NA
CHN,China,CHN.12_1,Henan,河南,CHN.12.7_1,Luoyang,Luòyáng,洛阳市,Dìjíshì,Prefecture City,NA,NA
CHN,China,CHN.12_1,Henan,河南,CHN.12.8_1,Nanyang,Nányáng,南阳市,Dìjíshì,Prefecture City,NA,NA
CHN,China,CHN.12_1,Henan,河南,CHN.12.9_1,Pingdingshan,Píngdǐngshān,平顶山市,Dìjíshì,Prefecture City,NA,NA
CHN,China,CHN.12_1,Henan,河南,CHN.12.10_1,Puyang,Púyáng,濮阳市,Dìjíshì,Prefecture City,NA,NA
CHN,China,CHN.12_1,Henan,河南,CHN.12.11_1,Sanmenxia,Sānménxiá,三门峡市,Dìjíshì,Prefecture City,NA,NA
CHN,China,CHN.12_1,Henan,河南,CHN.12.12_1,Shangqiu,Shāngqiū Xiàn,商丘市,Dìqu,Prefecture,NA,NA
CHN,China,CHN.12_1,Henan,河南,CHN.12.13_1,Xinxiang,Xīnxiāng,新乡市,Dìjíshì,Prefecture City,NA,NA
CHN,China,CHN.12_1,Henan,河南,CHN.12.14_1,Xinyang,Xìnyáng,信阳市,Dìjíshì,Prefecture City,NA,NA
CHN,China,CHN.12_1,Henan,河南,CHN.12.15_1,Xuchang,Xǔchāng,许昌市,Dìjíshì,Prefecture City,NA,NA
CHN,China,CHN.12_1,Henan,河南,CHN.12.16_1,Zhengzhou,Zhèngzhōu,郑州市,Dìjíshì,Prefecture City,NA,NA
CHN,China,CHN.12_1,Henan,河南,CHN.12.17_1,Zhoukou,Zhōukǒu,周口市,Dìjíshì,Prefecture City,NA,NA
CHN,China,CHN.12_1,Henan,河南,CHN.12.18_1,Zhumadian,Zhùmǎdiàn,驻马店市,Dìjíshì,Prefecture City,NA,NA
CHN,China,CHN.13_1,Hubei,湖北,CHN.13.1_1,Enshi Tujia and Miao,Ēnshī Tǔjiāzú|Miáozú,恩施土家族苗族自治州,Zìzhìzhou,Autonomous Prefecture,NA,NA
CHN,China,CHN.13_1,Hubei,湖北,CHN.13.2_1,Ezhou,Èzhōu,鄂州市,Dìjíshì,Prefecture City,NA,NA
CHN,China,CHN.13_1,Hubei,湖北,CHN.13.3_1,Huanggang,Huánggāng,黄冈市,Dìjíshì,Prefecture City,NA,NA
CHN,China,CHN.13_1,Hubei,湖北,CHN.13.4_1,Huangshi,Huángshí,黄石市,Dìjíshì,Prefecture City,NA,NA
CHN,China,CHN.13_1,Hubei,湖北,CHN.13.5_1,Jingmen,Jīngmén,荆门市,Dìjíshì,Prefecture City,NA,NA
CHN,China,CHN.13_1,Hubei,湖北,CHN.13.6_1,Jingzhou,Jīngzhōu,荆州市,Dìjíshì,Prefecture City,NA,NA
CHN,China,CHN.13_1,Hubei,湖北,CHN.13.7_1,Qianjiang,Qiánjiāng,潜江市,Dìjíshì,Prefecture City,NA,NA
CHN,China,CHN.13_1,Hubei,湖北,CHN.13.8_1,Shennongjia,Shénnóngjià Línqū,神农架林区,Dìqu,Prefecture,NA,NA
CHN,China,CHN.13_1,Hubei,湖北,CHN.13.9_1,Shiyan,Shíyàn,十堰市,Dìjíshì,Prefecture City,NA,NA
CHN,China,CHN.13_1,Hubei,湖北,CHN.13.10_1,Suizhou Shi,Suízhōu,随州市,Dìjíshì,Prefecture City,NA,NA
CHN,China,CHN.13_1,Hubei,湖北,CHN.13.11_1,Tianmen,Tiānmén,天门市,Dìjíshì,Prefecture City,NA,NA
CHN,China,CHN.13_1,Hubei,湖北,CHN.13.12_1,Wuhan,Wǔhàn,武汉市,Dìjíshì,Prefecture City,NA,NA
CHN,China,CHN.13_1,Hubei,湖北,CHN.13.13_1,Xiangfan,Xiāngfán,襄樊市,Dìjíshì,Prefecture City,NA,NA
CHN,China,CHN.13_1,Hubei,湖北,CHN.13.14_1,Xianning,Xiánníng,咸宁市,Dìjíshì,Prefecture City,NA,NA
CHN,China,CHN.13_1,Hubei,湖北,CHN.13.15_1,Xiantao,Xiāntáo,仙桃市,Dìjíshì,Prefecture City,NA,NA
CHN,China,CHN.13_1,Hubei,湖北,CHN.13.16_1,Xiaogan,Xiàogǎn,孝感市,Dìjíshì,Prefecture City,NA,NA
CHN,China,CHN.13_1,Hubei,湖北,CHN.13.17_1,Yichang,Yíchāng,宜昌市,Dìjíshì,Prefecture City,NA,NA
CHN,China,CHN.14_1,Hunan,湖南,CHN.14.1_1,Changde,Chángdé,常德市|常德市,Dìjíshì,Prefecture City,NA,NA
CHN,China,CHN.14_1,Hunan,湖南,CHN.14.2_1,Changsha,Chángshā,长沙市|長沙市,Dìjíshì,Prefecture City,NA,NA
CHN,China,CHN.14_1,Hunan,湖南,CHN.14.3_1,Chenzhou,Chēnzhōu,郴州市|郴州市,Dìjíshì,Prefecture City,NA,NA
CHN,China,CHN.14_1,Hunan,湖南,CHN.14.4_1,Hengyang,Héngyáng,衡阳市|衡陽市,Dìjíshì,Prefecture City,NA,NA
CHN,China,CHN.14_1,Hunan,湖南,CHN.14.5_1,Huaihua,Huáihuà,怀化市|懷化市,Dìjíshì,Prefecture City,NA,NA
CHN,China,CHN.14_1,Hunan,湖南,CHN.14.6_1,Loudi,Lóudǐ,娄底市|婁底市,Dìjíshì,Prefecture City,NA,NA
CHN,China,CHN.14_1,Hunan,湖南,CHN.14.7_1,Shaoyang,Shàoyáng,邵阳市|邵陽市,Dìjíshì,Prefecture City,NA,NA
CHN,China,CHN.14_1,Hunan,湖南,CHN.14.8_1,Xiangtan,Xiāngtán,湘潭市|湘潭市,Dìjíshì,Prefecture City,NA,NA
CHN,China,CHN.14_1,Hunan,湖南,CHN.14.9_1,Xiangxi Tujia and Miao,Xiāngxī Tǔjiāzú|Miáozú,湘西土家族苗族自治州|湘西土家族苗族自治州,Zìzhìzhou,Autonomous Prefecture,NA,NA
CHN,China,CHN.14_1,Hunan,湖南,CHN.14.10_1,Yiyang,Yìyáng,益阳市|益陽市,Dìjíshì,Prefecture City,NA,NA
CHN,China,CHN.14_1,Hunan,湖南,CHN.14.11_1,Yongzhou,Yǒngzhōu,永州市|永州市,Dìjíshì,Prefecture City,NA,NA
CHN,China,CHN.14_1,Hunan,湖南,CHN.14.12_1,Yueyang,Yuèyáng,岳阳市|岳陽市,Dìjíshì,Prefecture City,NA,NA
CHN,China,CHN.14_1,Hunan,湖南,CHN.14.13_1,Zhangjiajie,Zhāngjiājiè,张家界市|張家界市,Dìjíshì,Prefecture City,NA,NA
CHN,China,CHN.14_1,Hunan,湖南,CHN.14.14_1,Zhuzhou,Zhūzhōu,株洲市|株洲市,Dìjíshì,Prefecture City,NA,NA
CHN,China,CHN.15_1,Jiangsu,江蘇|江苏,CHN.15.1_1,Changzhou,Chángzhōu,常州市,Dìjíshì,Prefecture City,NA,NA
CHN,China,CHN.15_1,Jiangsu,江蘇|江苏,CHN.15.2_1,Huai'an,Huái'ān,淮安市,Dìjíshì,Prefecture City,NA,NA
CHN,China,CHN.15_1,Jiangsu,江蘇|江苏,CHN.15.3_1,Lianyungang,Liányúngǎng,连云港市,Dìjíshì,Prefecture City,NA,NA
CHN,China,CHN.15_1,Jiangsu,江蘇|江苏,CHN.15.4_1,Nanjing,Nánjīng,南京市,Dìjíshì,Prefecture City,NA,NA
CHN,China,CHN.15_1,Jiangsu,江蘇|江苏,CHN.15.5_1,Nantong,Nántōng,南通市,Dìjíshì,Prefecture City,NA,NA
CHN,China,CHN.15_1,Jiangsu,江蘇|江苏,CHN.15.6_1,Suqian,Sùqiān,宿迁市,Dìjíshì,Prefecture City,NA,NA
CHN,China,CHN.15_1,Jiangsu,江蘇|江苏,CHN.15.7_1,Suzhou,Sūzhōu,苏州市,Dìjíshì,Prefecture City,NA,NA
CHN,China,CHN.15_1,Jiangsu,江蘇|江苏,CHN.15.8_1,Taizhou,Tàizhōu,泰州市,Dìjíshì,Prefecture City,NA,NA
CHN,China,CHN.15_1,Jiangsu,江蘇|江苏,CHN.15.9_1,Wuxi,Wúxī,无锡市,Dìjíshì,Prefecture City,NA,NA
CHN,China,CHN.15_1,Jiangsu,江蘇|江苏,CHN.15.10_1,Xuzhou,Xúzhōu,徐州市,Dìjíshì,Prefecture City,NA,NA
CHN,China,CHN.15_1,Jiangsu,江蘇|江苏,CHN.15.11_1,Yancheng,Yánchéng,盐城市,Dìjíshì,Prefecture City,NA,NA
CHN,China,CHN.15_1,Jiangsu,江蘇|江苏,CHN.15.12_1,Yangzhou,Yángzhōu,扬州市,Dìjíshì,Prefecture City,NA,NA
CHN,China,CHN.15_1,Jiangsu,江蘇|江苏,CHN.15.13_1,Zhenjiang,Zhènjiāng,镇江市,Dìjíshì,Prefecture City,NA,NA
CHN,China,CHN.16_1,Jiangxi,江西,CHN.16.1_1,Fuzhou,Fǔzhōu,抚州市,Dìjíshì,Prefecture City,NA,NA
CHN,China,CHN.16_1,Jiangxi,江西,CHN.16.2_1,Ganzhou,Gànzhōu,赣州市,Dìjíshì,Prefecture City,NA,NA
CHN,China,CHN.16_1,Jiangxi,江西,CHN.16.3_1,Ji'an,Jí'ān,吉安市,Dìjíshì,Prefecture City,NA,NA
CHN,China,CHN.16_1,Jiangxi,江西,CHN.16.4_1,Jingdezhen,Jǐngdézhèn,景德镇市,Dìjíshì,Prefecture City,NA,NA
CHN,China,CHN.16_1,Jiangxi,江西,CHN.16.5_1,Jiujiang,Jiǔjiāng,九江市,Dìjíshì,Prefecture City,NA,NA
CHN,China,CHN.16_1,Jiangxi,江西,CHN.16.6_1,Nanchang,Nánchāng,南昌市,Dìjíshì,Prefecture City,NA,NA
CHN,China,CHN.16_1,Jiangxi,江西,CHN.16.7_1,Pingxiang,Píngxiāng,萍乡市,Dìjíshì,Prefecture City,NA,NA
CHN,China,CHN.16_1,Jiangxi,江西,CHN.16.8_1,Shangrao,Shàngráo,上饶市,Dìjíshì,Prefecture City,NA,NA
CHN,China,CHN.16_1,Jiangxi,江西,CHN.16.9_1,Xinyu,Xīnyú,新余市,Dìjíshì,Prefecture City,NA,NA
CHN,China,CHN.16_1,Jiangxi,江西,CHN.16.10_1,Yichun,Yíchūn,宜春市,Dìjíshì,Prefecture City,NA,NA
CHN,China,CHN.16_1,Jiangxi,江西,CHN.16.11_1,Yingtan,Yīngtán,鹰潭市,Dìjíshì,Prefecture City,NA,NA
CHN,China,CHN.17_1,Jilin,吉林,CHN.17.1_1,Baicheng,Báichéng,白城市,Dìjíshì,Prefecture City,NA,NA
CHN,China,CHN.17_1,Jilin,吉林,CHN.17.2_1,Baishan,Báishān,白山市,Dìjíshì,Prefecture City,NA,NA
CHN,China,CHN.17_1,Jilin,吉林,CHN.17.3_1,Changchun,Chángchūn,长春市,Dìjíshì,Prefecture City,NA,NA
CHN,China,CHN.17_1,Jilin,吉林,CHN.17.4_1,Jilin,Jílín,吉林市,Dìjíshì,Prefecture City,NA,NA
CHN,China,CHN.17_1,Jilin,吉林,CHN.17.5_1,Liaoyuan,Liáoyuán,辽源市,Dìjíshì,Prefecture City,NA,NA
CHN,China,CHN.17_1,Jilin,吉林,CHN.17.6_1,Siping,Sìpíng,四平市,Dìjíshì,Prefecture City,NA,NA
CHN,China,CHN.17_1,Jilin,吉林,CHN.17.7_1,Songyuan,Sōngyuán,松原市,Dìjíshì,Prefecture City,NA,NA
CHN,China,CHN.17_1,Jilin,吉林,CHN.17.8_1,Tonghua,Tōnghuà,通化市,Dìjíshì,Prefecture City,NA,NA
CHN,China,CHN.17_1,Jilin,吉林,CHN.17.9_1,Yanbian Korean,Yánbiān Cháoxiǎnzú,延边朝鲜族自治州,Zìzhìzhou,Autonomous Prefecture,NA,NA
CHN,China,CHN.18_1,Liaoning,遼寧|辽宁,CHN.18.1_1,Anshan,Ānshān,鞍山市,Dìjíshì,Prefecture City,NA,NA
CHN,China,CHN.18_1,Liaoning,遼寧|辽宁,CHN.18.2_1,Benxi,Běnxī,本溪市,Dìjíshì,Prefecture City,NA,NA
CHN,China,CHN.18_1,Liaoning,遼寧|辽宁,CHN.18.3_1,Chaoyang,Cháoyáng,朝阳市,Dìjíshì,Prefecture City,NA,NA
CHN,China,CHN.18_1,Liaoning,遼寧|辽宁,CHN.18.4_1,Dalian,Dàlián,大连市,Dìjíshì,Prefecture City,NA,NA
CHN,China,CHN.18_1,Liaoning,遼寧|辽宁,CHN.18.5_1,Dandong,Dāndōng,丹东市,Dìjíshì,Prefecture City,NA,NA
CHN,China,CHN.18_1,Liaoning,遼寧|辽宁,CHN.18.6_1,Fushun,Fǔshùn,抚顺市,Dìjíshì,Prefecture City,NA,NA
CHN,China,CHN.18_1,Liaoning,遼寧|辽宁,CHN.18.7_1,Fuxin,Fùxīn,阜新市,Dìjíshì,Prefecture City,NA,NA
CHN,China,CHN.18_1,Liaoning,遼寧|辽宁,CHN.18.8_1,Huludao,Húludǎo,葫芦岛市,Dìjíshì,Prefecture City,NA,NA
CHN,China,CHN.18_1,Liaoning,遼寧|辽宁,CHN.18.9_1,Jinzhou,Jǐnzhōu,锦州市,Dìjíshì,Prefecture City,NA,NA
CHN,China,CHN.18_1,Liaoning,遼寧|辽宁,CHN.18.10_1,Liaoyang,Liáoyáng,辽阳市,Dìjíshì,Prefecture City,NA,NA
CHN,China,CHN.18_1,Liaoning,遼寧|辽宁,CHN.18.11_1,Panjin,Pánjǐn,盘锦市,Dìjíshì,Prefecture City,NA,NA
CHN,China,CHN.18_1,Liaoning,遼寧|辽宁,CHN.18.12_1,Shenyang,Shěnyáng,沈阳市,Dìjíshì,Prefecture City,NA,NA
CHN,China,CHN.18_1,Liaoning,遼寧|辽宁,CHN.18.13_1,Tieling,Tiělǐng,铁岭市,Dìjíshì,Prefecture City,NA,NA
CHN,China,CHN.19_1,Nei Mongol,內蒙古自治區|内蒙古自治区,CHN.19.1_1,Alxa,Ālāshàn,阿拉善盟,Méng,League,NA,NA
CHN,China,CHN.19_1,Nei Mongol,內蒙古自治區|内蒙古自治区,CHN.19.2_1,Baotou,Bāotóu,包头市,Dìjíshì,Prefecture City,NA,NA
CHN,China,CHN.19_1,Nei Mongol,內蒙古自治區|内蒙古自治区,CHN.19.3_1,Baynnur,Bāyànnào'ěr,巴彦淖尔市,Dìjíshì,Prefecture City,NA,NA
CHN,China,CHN.19_1,Nei Mongol,內蒙古自治區|内蒙古自治区,CHN.19.4_1,Chifeng,Chìfēng,赤峰市,Dìjíshì,Prefecture City,NA,NA
CHN,China,CHN.19_1,Nei Mongol,內蒙古自治區|内蒙古自治区,CHN.19.5_1,Hohhot,Hūhéhàotè,呼和浩特市,Dìjíshì,Prefecture City,NA,NA
CHN,China,CHN.19_1,Nei Mongol,內蒙古自治區|内蒙古自治区,CHN.19.6_1,Hulunbuir,Hūlúnbèi'ěr,呼伦贝尔市,Dìjíshì,Prefecture City,NA,NA
CHN,China,CHN.19_1,Nei Mongol,內蒙古自治區|内蒙古自治区,CHN.19.7_1,Ordos,È'ěrduōsī,鄂尔多斯市,Dìjíshì,Prefecture City,NA,NA
CHN,China,CHN.19_1,Nei Mongol,內蒙古自治區|内蒙古自治区,CHN.19.8_1,Tongliao,Tōngliáo,通辽市,Dìjíshì,Prefecture City,NA,NA
CHN,China,CHN.19_1,Nei Mongol,內蒙古自治區|内蒙古自治区,CHN.19.9_1,Ulaan Chab,Wūlánchábù,乌兰察布市,Dìjíshì,Prefecture City,NA,NA
CHN,China,CHN.19_1,Nei Mongol,內蒙古自治區|内蒙古自治区,CHN.19.10_1,Wuhai,Wūhǎi,乌海市,Dìjíshì,Prefecture City,NA,NA
CHN,China,CHN.19_1,Nei Mongol,內蒙古自治區|内蒙古自治区,CHN.19.11_1,Xilin Gol,Xīlínguōlè,锡林郭勒盟,Méng,League,NA,NA
CHN,China,CHN.19_1,Nei Mongol,內蒙古自治區|内蒙古自治区,CHN.19.12_1,Xing'an,Xīng'ān,兴安盟,Méng,League,NA,NA
CHN,China,CHN.20_1,Ningxia Hui,寧夏回族自治區|宁夏回族自治区,CHN.20.1_1,Guyuan,Gùyuán,固原市,Dìjíshì,Prefecture City,NA,NA
CHN,China,CHN.20_1,Ningxia Hui,寧夏回族自治區|宁夏回族自治区,CHN.20.2_1,Shizuishan,Shízuǐshān,石嘴山市,Dìjíshì,Prefecture City,NA,NA
CHN,China,CHN.20_1,Ningxia Hui,寧夏回族自治區|宁夏回族自治区,CHN.20.3_1,Wuzhong,Wúzhōng,吴忠市,Dìjíshì,Prefecture City,NA,NA
CHN,China,CHN.20_1,Ningxia Hui,寧夏回族自治區|宁夏回族自治区,CHN.20.4_1,Yinchuan,Yínchuān,银川市,Dìjíshì,Prefecture City,NA,NA
CHN,China,CHN.20_1,Ningxia Hui,寧夏回族自治區|宁夏回族自治区,CHN.20.5_1,Zhongwei,Zhōngwèi,中卫市,Dìjíshì,Prefecture City,NA,NA
CHN,China,CHN.21_1,Qinghai,青海,CHN.21.1_1,Golog Tibetan,Guǒluò Zàngzú,果洛藏族自治州,Zìzhìzhou,Autonomous Prefecture,NA,NA
CHN,China,CHN.21_1,Qinghai,青海,CHN.21.2_1,Gyêgu Tibetan,Yùshù Zàngzú,玉树藏族自治州,Zìzhìzhou,Autonomous Prefecture,NA,NA
CHN,China,CHN.21_1,Qinghai,青海,CHN.21.3_1,Haibei Tibetan,Hǎiběi Zàngzú,海北藏族自治州,Zìzhìzhou,Autonomous Prefecture,NA,NA
CHN,China,CHN.21_1,Qinghai,青海,CHN.21.4_1,Haidong,Hǎidōng,海东地区,Dìqu,Prefecture,NA,NA
CHN,China,CHN.21_1,Qinghai,青海,CHN.21.5_1,Hainan Tibetan,Hǎinán Zàngzú,海南藏族自治州,Zìzhìzhou,Autonomous Prefecture,NA,NA
CHN,China,CHN.21_1,Qinghai,青海,CHN.21.6_1,Haixi Mongol and Tibetan,Hǎixī Měnggǔzú Zàngzú,海西蒙古族藏族自治州,Zìzhìzhou,Autonomous Prefecture,NA,NA
CHN,China,CHN.21_1,Qinghai,青海,CHN.21.7_1,Huangnan Tibetan,Huángnán Zàngzú,黄南藏族自治州,Zìzhìzhou,Autonomous Prefecture,NA,NA
CHN,China,CHN.21_1,Qinghai,青海,CHN.21.8_1,Xining,Xīníng,西宁市,Dìjíshì,Prefecture City,NA,NA
CHN,China,CHN.22_1,Shaanxi,陝西|陕西,CHN.22.1_1,Ankang,Ānkāng,安康市,Dìjíshì,Prefecture City,NA,NA
CHN,China,CHN.22_1,Shaanxi,陝西|陕西,CHN.22.2_1,Baoji,Bǎojī,宝鸡市,Dìjíshì,Prefecture City,NA,NA
CHN,China,CHN.22_1,Shaanxi,陝西|陕西,CHN.22.3_1,Hanzhong,Hànzhōng,汉中市,Dìjíshì,Prefecture City,NA,NA
CHN,China,CHN.22_1,Shaanxi,陝西|陕西,CHN.22.4_1,Shangluo,Shāngluò,商洛市,Dìjíshì,Prefecture City,NA,NA
CHN,China,CHN.22_1,Shaanxi,陝西|陕西,CHN.22.5_1,Tongchuan,Tóngchuān,铜川市,Dìjíshì,Prefecture City,NA,NA
CHN,China,CHN.22_1,Shaanxi,陝西|陕西,CHN.22.6_1,Weinan,Wèinán,渭南市,Dìjíshì,Prefecture City,NA,NA
CHN,China,CHN.22_1,Shaanxi,陝西|陕西,CHN.22.7_1,Xi'an,Xī'ān,西安市,Dìjíshì,Prefecture City,NA,NA
CHN,China,CHN.22_1,Shaanxi,陝西|陕西,CHN.22.8_1,Xianyang,Xiányáng,咸阳市,Dìjíshì,Prefecture City,NA,NA
CHN,China,CHN.22_1,Shaanxi,陝西|陕西,CHN.22.9_1,Yan'an,Yán'ān,延安市,Dìjíshì,Prefecture City,NA,NA
CHN,China,CHN.22_1,Shaanxi,陝西|陕西,CHN.22.10_1,Yulin,Yúlín,榆林市,Dìjíshì,Prefecture City,NA,NA
CHN,China,CHN.23_1,Shandong,山東|山东,CHN.23.1_1,Binzhou,Bīnzhōu,滨州,Dìqu,Prefecture,NA,NA
CHN,China,CHN.23_1,Shandong,山東|山东,CHN.23.2_1,Dezhou,Dézhōu,德州市,Dìjíshì,Prefecture City,NA,NA
CHN,China,CHN.23_1,Shandong,山東|山东,CHN.23.3_1,Dongying,Dōngyíng,东营市,Dìjíshì,Prefecture City,NA,NA
CHN,China,CHN.23_1,Shandong,山東|山东,CHN.23.4_1,Heze,Hézé,菏泽市,Dìjíshì,Prefecture City,NA,NA
CHN,China,CHN.23_1,Shandong,山東|山东,CHN.23.5_1,Jinan,Jǐnán,济南市,Dìjíshì,Prefecture City,NA,NA
CHN,China,CHN.23_1,Shandong,山東|山东,CHN.23.6_1,Jining,Jǐníng,济宁市,Dìjíshì,Prefecture City,NA,NA
CHN,China,CHN.23_1,Shandong,山東|山东,CHN.23.7_1,Laiwu,Láiwú,莱芜市,Dìjíshì,Prefecture City,NA,NA
CHN,China,CHN.23_1,Shandong,山東|山东,CHN.23.8_1,Liaocheng,Liáochéng,聊城市,Dìjíshì,Prefecture City,NA,NA
CHN,China,CHN.23_1,Shandong,山東|山东,CHN.23.9_1,Linyi,Línyí,临沂市,Dìjíshì,Prefecture City,NA,NA
CHN,China,CHN.23_1,Shandong,山東|山东,CHN.23.10_1,Qingdao,Qīngdǎo,青岛市,Dìjíshì,Prefecture City,NA,NA
CHN,China,CHN.23_1,Shandong,山東|山东,CHN.23.11_1,Rizhao,Rìzhào,日照市,Dìjíshì,Prefecture City,NA,NA
CHN,China,CHN.23_1,Shandong,山東|山东,CHN.23.12_1,Tai'an,Tài'ān,泰安市,Dìjíshì,Prefecture City,NA,NA
CHN,China,CHN.23_1,Shandong,山東|山东,CHN.23.13_1,Weifang,Wéifāng,潍坊市,Dìjíshì,Prefecture City,NA,NA
CHN,China,CHN.23_1,Shandong,山東|山东,CHN.23.14_1,Weihai,Wēihǎi,威海市,Dìjíshì,Prefecture City,NA,NA
CHN,China,CHN.23_1,Shandong,山東|山东,CHN.23.15_1,Yantai,Yāntái,烟台市,Dìjíshì,Prefecture City,NA,NA
CHN,China,CHN.23_1,Shandong,山東|山东,CHN.23.16_1,Zaozhuang,Zǎozhuāng,枣庄市,Dìjíshì,Prefecture City,NA,NA
CHN,China,CHN.23_1,Shandong,山東|山东,CHN.23.17_1,Zibo,Zībó,淄博市,Dìjíshì,Prefecture City,NA,NA
CHN,China,CHN.24_1,Shanghai,上海|上海,CHN.24.1_1,Shanghai,Shànghǎi,上海|上海,Zhíxiáshì,Municipality,NA,NA
CHN,China,CHN.25_1,Shanxi,山西,CHN.25.1_1,Changzhi,Chángzhì,长治市,Dìjíshì,Prefecture City,NA,NA
CHN,China,CHN.25_1,Shanxi,山西,CHN.25.2_1,Datong,Dàtóng,大同市,Dìjíshì,Prefecture City,NA,NA
CHN,China,CHN.25_1,Shanxi,山西,CHN.25.3_1,Jincheng,Jìnchéng,晋城市,Dìjíshì,Prefecture City,NA,NA
CHN,China,CHN.25_1,Shanxi,山西,CHN.25.4_1,Jinzhong,Jìnzhōng,晋中市,Dìjíshì,Prefecture City,NA,NA
CHN,China,CHN.25_1,Shanxi,山西,CHN.25.5_1,Linfen,Línfén,临汾市,Dìjíshì,Prefecture City,NA,NA
CHN,China,CHN.25_1,Shanxi,山西,CHN.25.6_1,Luliang,Lǚlíang,吕梁市,Dìjíshì,Prefecture City,NA,NA
CHN,China,CHN.25_1,Shanxi,山西,CHN.25.7_1,Shuozhou,Shuòzhōu,朔州市,Dìjíshì,Prefecture City,NA,NA
CHN,China,CHN.25_1,Shanxi,山西,CHN.25.8_1,Taiyuan,Tàiyuán,太原市,Dìjíshì,Prefecture City,NA,NA
CHN,China,CHN.25_1,Shanxi,山西,CHN.25.9_1,Xinzhou,Xīnzhōu,忻州市,Dìjíshì,Prefecture City,NA,NA
CHN,China,CHN.25_1,Shanxi,山西,CHN.25.10_1,Yangquan,Yángquán,阳泉市,Dìjíshì,Prefecture City,NA,NA
CHN,China,CHN.25_1,Shanxi,山西,CHN.25.11_1,Yuncheng,Yùnchéng,运城县,Dìjíshì,Prefecture City,NA,NA
CHN,China,CHN.26_1,Sichuan,四川,CHN.26.1_1,Bazhong,Bāzhōng,巴中市,Dìjíshì,Prefecture City,NA,NA
CHN,China,CHN.26_1,Sichuan,四川,CHN.26.2_1,Chengdu,Chéngdū,成都市,Dìjíshì,Prefecture City,NA,NA
CHN,China,CHN.26_1,Sichuan,四川,CHN.26.3_1,Dazhou,Dázhōu,达州市,Dìjíshì,Prefecture City,NA,NA
CHN,China,CHN.26_1,Sichuan,四川,CHN.26.4_1,Deyang,Déyáng,德阳市,Dìjíshì,Prefecture City,NA,NA
CHN,China,CHN.26_1,Sichuan,四川,CHN.26.5_1,Garzê Tibetan,Gānzī Zàngzú,甘孜藏族自治州,Zìzhìzhou,Autonomous Prefecture,NA,NA
CHN,China,CHN.26_1,Sichuan,四川,CHN.26.6_1,Guang'an,Guǎng'ān,广安市,Dìjíshì,Prefecture City,NA,NA
CHN,China,CHN.26_1,Sichuan,四川,CHN.26.7_1,Guangyuan,Guǎngyuán,广元市,Dìjíshì,Prefecture City,NA,NA
CHN,China,CHN.26_1,Sichuan,四川,CHN.26.8_1,Leshan,Lèshān,乐山市,Dìjíshì,Prefecture City,NA,NA
CHN,China,CHN.26_1,Sichuan,四川,CHN.26.9_1,Liangshan Yi,Liángshān Yízú,凉山彝族自治州,Zìzhìzhou,Autonomous Prefecture,NA,NA
CHN,China,CHN.26_1,Sichuan,四川,CHN.26.10_1,Luzhou,Lúzhōu,泸州市,Dìjíshì,Prefecture City,NA,NA
CHN,China,CHN.26_1,Sichuan,四川,CHN.26.11_1,Meishan,Méishān,眉山市,Dìjíshì,Prefecture City,NA,NA
CHN,China,CHN.26_1,Sichuan,四川,CHN.26.12_1,Mianyang,Míanyáng,绵阳市,Dìjíshì,Prefecture City,NA,NA
CHN,China,CHN.26_1,Sichuan,四川,CHN.26.13_1,Nanchong,Nánchōng,南充市,Dìjíshì,Prefecture City,NA,NA
CHN,China,CHN.26_1,Sichuan,四川,CHN.26.15_1,Neijiang,Nèijiāng,内江市,Dìjíshì,Prefecture City,NA,NA
CHN,China,CHN.26_1,Sichuan,四川,CHN.26.14_1,Neijiang]],Nèijiāng,内江市,Dìjíshì,Prefecture City,NA,NA
CHN,China,CHN.26_1,Sichuan,四川,CHN.26.16_1,Ngawa Tibetan and Qiang,Ābà Zàngzú|Qiāngzú,阿坝藏族羌族自治州,Zìzhìzhou,Autonomous Prefecture,NA,NA
CHN,China,CHN.26_1,Sichuan,四川,CHN.26.17_1,Panzhihua,Pānzhīhuā,攀枝花市,Dìjíshì,Prefecture City,NA,NA
CHN,China,CHN.26_1,Sichuan,四川,CHN.26.18_1,Suining,Sùiníng,遂宁市,Dìjíshì,Prefecture City,NA,NA
CHN,China,CHN.26_1,Sichuan,四川,CHN.26.19_1,Ya'an,Yǎ'ān,雅安市,Dìjíshì,Prefecture City,NA,NA
CHN,China,CHN.26_1,Sichuan,四川,CHN.26.20_1,Yibin,Yíbīn,宜宾市,Dìjíshì,Prefecture City,NA,NA
CHN,China,CHN.26_1,Sichuan,四川,CHN.26.21_1,Zigong,Zìgòng,自贡市,Dìjíshì,Prefecture City,NA,NA
CHN,China,CHN.26_1,Sichuan,四川,CHN.26.22_1,Ziyang,Zīyáng,资阳市,Dìjíshì,Prefecture City,NA,NA
CHN,China,CHN.27_1,Tianjin,天津|天津,CHN.27.1_1,Tianjin,Tiānjīn,天津|天津,Zhíxiáshì,Municipality,NA,NA
CHN,China,CHN.28_1,Xinjiang Uygur,新疆維吾爾自治區|新疆维吾尔自治区,CHN.28.1_1,Aksu,Ākèsū,阿克苏地区,Dìqu,Prefecture,NA,NA
CHN,China,CHN.28_1,Xinjiang Uygur,新疆維吾爾自治區|新疆维吾尔自治区,CHN.28.2_1,Altay,Ālètài,阿勒泰地区,Dìqu,Prefecture,NA,NA
CHN,China,CHN.28_1,Xinjiang Uygur,新疆維吾爾自治區|新疆维吾尔自治区,CHN.28.3_1,Bayin'gholin Mongol,Bāyīnguōlèng Měnggǔ,巴音郭愣蒙古自治州,Zìzhìzhou,Autonomous Prefecture,NA,NA
CHN,China,CHN.28_1,Xinjiang Uygur,新疆維吾爾自治區|新疆维吾尔自治区,CHN.28.4_1,Börtala Mongol,Bó'ěrtǎlā Měnggǔ,博尔塔拉蒙古自治州,Zìzhìzhou,Autonomous Prefecture,NA,NA
CHN,China,CHN.28_1,Xinjiang Uygur,新疆維吾爾自治區|新疆维吾尔自治区,CHN.28.5_1,Changji Hui,Chāngjí Huízú,昌吉回族自治州,Zìzhìzhou,Autonomous Prefecture,NA,NA
CHN,China,CHN.28_1,Xinjiang Uygur,新疆維吾爾自治區|新疆维吾尔自治区,CHN.28.6_1,Hami,Hāmì,哈密地区,Dìqu,Prefecture,NA,NA
CHN,China,CHN.28_1,Xinjiang Uygur,新疆維吾爾自治區|新疆维吾尔自治区,CHN.28.7_1,Ili Kazakh,Yīlí Hāsàkè,伊犁哈萨克自治州,Zìzhìzhou,Autonomous Prefecture,NA,NA
CHN,China,CHN.28_1,Xinjiang Uygur,新疆維吾爾自治區|新疆维吾尔自治区,CHN.28.8_1,Karamay,Kèlāmǎyī,克拉玛依市,Dìjíshì,Prefecture City,NA,NA
CHN,China,CHN.28_1,Xinjiang Uygur,新疆維吾爾自治區|新疆维吾尔自治区,CHN.28.9_1,Kashgar,Kāshí,喀什地区,Dìqu,Prefecture,NA,NA
CHN,China,CHN.28_1,Xinjiang Uygur,新疆維吾爾自治區|新疆维吾尔自治区,CHN.28.10_1,Khotan,Hétián,和田地区,Dìqu,Prefecture,NA,NA
CHN,China,CHN.28_1,Xinjiang Uygur,新疆維吾爾自治區|新疆维吾尔自治区,CHN.28.11_1,Kizilsu Kirghiz,Kèzīlèsū Kē'ěrkèzī,克孜勒苏柯尔克孜自治州,Zìzhìzhou,Autonomous Prefecture,NA,NA
CHN,China,CHN.28_1,Xinjiang Uygur,新疆維吾爾自治區|新疆维吾尔自治区,CHN.28.12_1,Shihezi,Shíhézǐ,石河子市,Dìjíshì,Prefecture City,NA,NA
CHN,China,CHN.28_1,Xinjiang Uygur,新疆維吾爾自治區|新疆维吾尔自治区,CHN.28.13_1,Tacheng,Tǎchéng,塔城地区,Dìqu,Prefecture,NA,NA
CHN,China,CHN.28_1,Xinjiang Uygur,新疆維吾爾自治區|新疆维吾尔自治区,CHN.28.14_1,Turfan,Tǔlǔfān,吐鲁番地区,Dìqu,Prefecture,NA,NA
CHN,China,CHN.28_1,Xinjiang Uygur,新疆維吾爾自治區|新疆维吾尔自治区,CHN.28.15_1,Ürümqi,Wūlǔmùqí,乌鲁木齐市,Dìjíshì,Prefecture City,NA,NA
CHN,China,CHN.29_1,Xizang,西藏自治區|西藏自治区,CHN.29.1_1,Chamdo,Chāngdū,昌都地区,Dìqu,Prefecture,NA,NA
CHN,China,CHN.29_1,Xizang,西藏自治區|西藏自治区,CHN.29.2_1,Lhasa,Lāsà,拉萨市,Dìjíshì,Prefecture City,NA,NA
CHN,China,CHN.29_1,Xizang,西藏自治區|西藏自治区,CHN.29.3_1,Nagchu,Nàqū,那曲地区,Dìqu,Prefecture,NA,NA
CHN,China,CHN.29_1,Xizang,西藏自治區|西藏自治区,CHN.29.4_1,Ngari,Ālǐ,阿里地区,Dìqu,Prefecture,NA,NA
CHN,China,CHN.29_1,Xizang,西藏自治區|西藏自治区,CHN.29.5_1,Nyingtri,Línzhī,林芝地区,Dìqu,Prefecture,NA,NA
CHN,China,CHN.29_1,Xizang,西藏自治區|西藏自治区,CHN.29.6_1,Shannan,Shānnán,山南地区,Dìqu,Prefecture,NA,NA
CHN,China,CHN.29_1,Xizang,西藏自治區|西藏自治区,CHN.29.7_1,Shigatse,Rìkāzé,日喀则地区,Dìqu,Prefecture,NA,NA
CHN,China,CHN.30_1,Yunnan,雲南|云南,CHN.30.1_1,Baoshan,Bǎoshān,保山市,Dìjíshì,Prefecture City,NA,NA
CHN,China,CHN.30_1,Yunnan,雲南|云南,CHN.30.2_1,Chuxiong Yi,Chǔxióng Yízú,楚雄彝族自治州,Zìzhìzhou,Autonomous Prefecture,NA,NA
CHN,China,CHN.30_1,Yunnan,雲南|云南,CHN.30.3_1,Dali Bai,Dàlǐ Báizú,大理白族自治州,Zìzhìzhou,Autonomous Prefecture,NA,NA
CHN,China,CHN.30_1,Yunnan,雲南|云南,CHN.30.4_1,Dehong Dai and Jingpo,Déhóng Dǎizú|Jǐngpōzú,德宏傣族景颇族自治州,Zìzhìzhou,Autonomous Prefecture,NA,NA
CHN,China,CHN.30_1,Yunnan,雲南|云南,CHN.30.5_1,Dêqên Tibetan,Díqìng Zàngzú,迪庆藏族自治州,Zìzhìzhou,Autonomous Prefecture,NA,NA
CHN,China,CHN.30_1,Yunnan,雲南|云南,CHN.30.6_1,Honghe Hani and Yi,Hónghé Hānízú|Yízú,红河哈尼族彝族自治州,Zìzhìzhou,Autonomous Prefecture,NA,NA
CHN,China,CHN.30_1,Yunnan,雲南|云南,CHN.30.7_1,Kunming,Kūnmíng,昆明市,Dìjíshì,Prefecture City,NA,NA
CHN,China,CHN.30_1,Yunnan,雲南|云南,CHN.30.8_1,Lijiang,Lìjiāng,丽江市,Dìjíshì,Prefecture City,NA,NA
CHN,China,CHN.30_1,Yunnan,雲南|云南,CHN.30.9_1,Lincang,Líncāng,临沧市,Dìjíshì,Prefecture City,NA,NA
CHN,China,CHN.30_1,Yunnan,雲南|云南,CHN.30.10_1,Nujiang Lisu,Nùjiāng Lìsùzú,怒江傈僳族自治州,Zìzhìzhou,Autonomous Prefecture,NA,NA
CHN,China,CHN.30_1,Yunnan,雲南|云南,CHN.30.11_1,Pu'er,Pǔ'ěr,普洱市,Dìjíshì,Prefecture City,NA,NA
CHN,China,CHN.30_1,Yunnan,雲南|云南,CHN.30.12_1,Qujing,Qǔjìng,曲靖市,Dìjíshì,Prefecture City,NA,NA
CHN,China,CHN.30_1,Yunnan,雲南|云南,CHN.30.13_1,Wenshan Zhuang and Miao,Wénshān Zhuàngzú|Miáozú,文山壮族苗族自治州,Zìzhìzhou,Autonomous Prefecture,NA,NA
CHN,China,CHN.30_1,Yunnan,雲南|云南,CHN.30.14_1,Xishuangbanna Dai,Xīshuāngbǎnnà|Dǎizú,西双版纳傣族自治州,Zìzhìzhou,Autonomous Prefecture,NA,NA
CHN,China,CHN.30_1,Yunnan,雲南|云南,CHN.30.15_1,Yuxi,Yùxī,玉溪市,Dìjíshì,Prefecture City,NA,NA
CHN,China,CHN.30_1,Yunnan,雲南|云南,CHN.30.16_1,Zhaotong,Zhāotōng,昭通市,Dìjíshì,Prefecture City,NA,NA
CHN,China,CHN.31_1,Zhejiang,浙江,CHN.31.1_1,Hangzhou,Hángzhōu,杭州市,Dìjíshì,Prefecture City,NA,NA
CHN,China,CHN.31_1,Zhejiang,浙江,CHN.31.2_1,Huzhou,Húzhōu,湖州市,Dìjíshì,Prefecture City,NA,NA
CHN,China,CHN.31_1,Zhejiang,浙江,CHN.31.3_1,Jiaxing,Jiāxīng,嘉兴市,Dìjíshì,Prefecture City,NA,NA
CHN,China,CHN.31_1,Zhejiang,浙江,CHN.31.4_1,Jinhua,Jīnhuá,金华市,Dìjíshì,Prefecture City,NA,NA
CHN,China,CHN.31_1,Zhejiang,浙江,CHN.31.5_1,Lishui,Líshuǐ,丽水市,Dìjíshì,Prefecture City,NA,NA
CHN,China,CHN.31_1,Zhejiang,浙江,CHN.31.6_1,Ningbo,Níngbō,宁波市,Dìjíshì,Prefecture City,NA,NA
CHN,China,CHN.31_1,Zhejiang,浙江,CHN.31.7_1,Quzhou,Qúzhōu,衢州市,Dìjíshì,Prefecture City,NA,NA
CHN,China,CHN.31_1,Zhejiang,浙江,CHN.31.8_1,Shaoxing,Shàoxīng,绍兴市,Dìjíshì,Prefecture City,NA,NA
CHN,China,CHN.31_1,Zhejiang,浙江,CHN.31.9_1,Taizhou,Tāizhōu,台州市,Dìjíshì,Prefecture City,NA,NA
CHN,China,CHN.31_1,Zhejiang,浙江,CHN.31.10_1,Wenzhou,Wēnzhōu,温州市,Dìjíshì,Prefecture City,NA,NA
CHN,China,CHN.31_1,Zhejiang,浙江,CHN.31.11_1,Zhoushan,Zhōushān,舟山市,Dìjíshì,Prefecture City,NA,NA
